{
	"variables" : {
		"project_id" : "peerless-watch-380808",
		"source_image_family" : "reddit-base",
		"machine_type" : "e2-standard-2"
	},
	"builders": [
		{
			"type" : "googlecompute",
			"project_id" : "{{user `project_id`}}",
			"image_name" : "reddit-full-{{timestamp}}",
			"image_family" : "reddit-full",
			"source_image_family" : "{{user `source_image_family`}}",
			"zone" : "us-central1-a",
			"ssh_username" : "appuser",
			"machine_type" : "{{user `machine_type`}}",
			"tags" : "{{user `tags`}}"
		}
	],
	"provisioners": [
		{
	    "type": "file",
	    "source": "files/puma.service",
	    "destination": "/tmp/puma.service"
        },
		{
			"type" : "shell",
			"script" : "scripts/deploy.sh",
			"execute_command" : "sudo {{.Path}}"
		}
	]
}