{   
    "variables" : {
                "gcp_project_id": "peerless-watch-380808",
                "gcp_source_image_family": "ubuntu-1804-lts",
                "gcp_machine_type": "e2-standard-2",
                "gcp_disk_size" : "10",
		        "disk_type" : "pd-standard",
		        "tags" : "puma-server"
    },

    "builders": [
        {
                "type": "googlecompute",
                "project_id": "{{user `gcp_project_id`}}",
                "image_name": "reddit-base-{{timestamp}}",
                "image_family": "reddit-base",
                "source_image_family": "{{user `gcp_source_image_family`}}",
                "zone": "us-central1-a",
                "ssh_username": "appuser",
                "machine_type": "{{user `gcp_machine_type`}}",
                "disk_size": "{{user `gcp_disk_size`}}"
        }
    ],
    "provisioners": [
        {
            "type": "shell",
            "script": "scripts/install_ruby.sh",
            "execute_command": "sudo {{.Path}}"
        },
        {
            "type": "shell",
            "script": "scripts/install_mongodb.sh",
            "execute_command": "sudo {{.Path}}"
        }
                    ]
}
    